{
    "collection": [
        {
            "artwork_url": "https://i1.sndcdn.com/artworks-SG1CJ3MgeF2F-0-large.jpg",
            "caption": null,
            "comment_count": 3187,
            "commentable": true,
            "created_at": "2024-04-19T18:17:22Z",
            "description": null,
            "display_date": "2024-04-19T16:00:00Z",
            "download_count": 0,
            "downloadable": false,
            "duration": 232803,
            "embeddable_by": "all",
            "full_duration": 232803,
            "genre": "Hip Hop",
            "has_downloads_left": false,
            "id": 1803793386,
            "kind": "track",
            "label_name": "OVO/Republic",
            "last_modified": "2024-04-19T18:30:29Z",
            "license": "all-rights-reserved",
            "likes_count": 64084,
            "media": { },
            "monetization_model": "AD_SUPPORTED",
            "permalink": "drake-push-ups",
            "permalink_url": "https://soundcloud.com/octobersveryown/drake-push-ups",
            "Example link for direct to app": "soundcloud://tracks/163746368?utm_source=direct&utm_content=download_button_header&utm_medium=mobi&utm_campaign=no_campaign&mt=8&at=direct&pt=mobi&ct=no_campaign",
            "playback_count": 2377952,
            "policy": "MONETIZE",
            "public": true,
            "publisher_metadata": { },
            "purchase_title": null,
            "purchase_url": null,
            "release_date": "2024-04-19T00:00:00Z",
            "reposts_count": 1106,
            "secret_token": null,
            "sharing": "public",
            "state": "finished",
            "station_permalink": "track-stations:1803793386",
            "station_urn": "soundcloud:system-playlists:track-stations:1803793386",
            "streamable": true,
            "tag_list": "",
            "title": "Drake - Push Ups",
            "track_authorization": "eyJ0eXAiOiJKV1QiLCJhbGciOiJIUzI1NiJ9.eyJnZW8iOiJBVSIsInN1YiI6IiIsInJpZCI6IjdkOTg5NDExLTg5NTUtNDM1ZS05NGNiLTU0ZDNlYTY3MmRhZCIsImlhdCI6MTcxNjM3Njg3NH0.03O-_uQPVl5jv-YuKjyN5w4f9tdTL3dLW5fOOF6pzG8",
            "uri": "https://api.soundcloud.com/tracks/1803793386",
            "urn": "soundcloud:tracks:1803793386",
            "user": { },
            "user_id": 1078461,
            "visuals": null,
            "waveform_url": "https://wave.sndcdn.com/jUsICMbT0QG3_m.json"
        }
    ],
    "next_href": "https://api-v2.soundcloud.com/search/tracks?query_urn=soundcloud%3Asearch%3A04a7d59618b74d669048df903363032f&limit=1&offset=1&q=Push%20ups",
    "query_urn": "soundcloud:search:04a7d59618b74d669048df903363032f",
    "total_results": 8715
}
